digraph G {
    rankdir="LR"
    compound="true"
    forcelabels="true"
    penwidth="1.0"

    splines="ortho"

    node [
        shape="plain"
    ]

    edge [
        penwidth="5.0"
    ]

    subgraph "cluster_-8" {
        negative8[
            label=<
            <table border="0">
            <tr><td><img src="img/12155.jpg"/></td></tr>
            <tr><td>-8</td></tr>
            </table>
            >
            tooltip="-8"
            href="https://vndb.org/v12155"
        ]
    }

    subgraph "cluster_-1" {
        one_two_finish [
            label=<
            <table border="0">
            <tr><td><img src="img/27599.jpg"/></td></tr>
            <tr><td>1-2 Finish!</td></tr>
            </table>
            >
            tooltip="1-2 Finish!"
            href="https://vndb.org/v27599"
        ]
    }

    subgraph "cluster_-0" {
        nega0 [
            label=<
            <table border="0">
            <tr><td><img src="img/1746.jpg"/></td></tr>
            <tr><td>Nega0<br/>~Negative Zero~</td></tr>
            </table>
            >
            tooltip="Nega0 ~Negative Zero~"
            href="https://vndb.org/v1746"
        ]
    }

    subgraph cluster_0 {
        rezero [
            label=<
            <table border="0">
            <tr><td><img src="img/19890.jpg"/></td></tr>
            <tr><td>Re:ゼロから<br/>始める異世界生活<br/>-DEATH OR KISS-</td></tr>
            </table>
            >
            tooltip="Re:ゼロから始める異世界生活 -DEATH OR KISS-"
            href="https://vndb.org/v19890" 
        ]

        zero_cinderella [
            label=<
            <table border="0">
            <tr><td><img src="img/11879.jpg"/></td></tr>
            <tr><td>０時の鐘とシンデレラ<br/>～Halloween Wedding～</td></tr>
            </table>
            >
            tooltip="０時の鐘とシンデレラ～Halloween Wedding～"
            href="https://vndb.org/v11879" 
        ]

        root_letter [
            label=<
            <table border="0">
            <tr><td><img src="img/18644.jpg"/></td></tr>
            <tr><td>√Letter</td></tr>
            </table>
            >
            tooltip="√Letter"
            href="https://vndb.org/v18644" 
        ]
    }

    subgraph "cluster_1/7" {
        "1/7mahou" [
            label=<
            <table border="0">
            <tr><td><img src="img/15438.jpg"/></td></tr>
            <tr><td>1/7の魔法使い</td></tr>
            </table>
            >
            tooltip="1/7の魔法使い"
            href="https://vndb.org/v15438" 
        ]
    }

    subgraph "cluster_1/2" {
        "1/2summer" [
            label=<
            <table border="0">
            <tr><td><img src="img/9125.jpg"/></td></tr>
            <tr><td>1/2 Summer</td></tr>
            </table>
            >
            tooltip="1/2 Summer"
            href="https://vndb.org/v9125" 
        ]

        "1/2blood" [
            label=<
            <table border="0">
            <tr><td><img src="img/5774.jpg"/></td></tr>
            <tr><td>1/2BLOOD</td></tr>
            </table>
            >
            tooltip="1/2BLOOD"
            href="https://vndb.org/v5774" 
        ]
    }
    
    subgraph cluster_1 {
        one [
            label=<
            <table border="0">
            <tr><td><img src="img/51.jpg"/></td></tr>
            <tr><td>ONE ～輝く季節へ～</td></tr>
            </table>
            >
            tooltip="ONE ～輝く季節へ～"
            href="https://vndb.org/v51" 
        ]
        
        one2 [
            label=<
            <table border="0">
            <tr><td><img src="img/670.jpg"/></td></tr>
            <tr><td>ONE2～永遠の約束～</td></tr>
            </table>
            >
            tooltip="ONE2～永遠の約束～"
            href="https://vndb.org/v670" 
        ]

        "1room" [
            label=<
            <table border="0">
            <tr><td><img src="img/26837.jpg"/></td></tr>
            <tr><td>1room -家出少女-</td></tr>
            </table>
            >
            tooltip="1room -家出少女-"
            href="https://vndb.org/v26837" 
        ]
    }
    
    subgraph cluster_2 {
        "2nd love" [
            label=<
            <table border="0">
            <tr><td><img src="img/4373.jpg"/></td></tr>
            <tr><td>2nd LOVE</td></tr>
            </table>
            >
            tooltip="2nd LOVE"
            href="https://vndb.org/v4373" 
        ]

        "2jigen" [
            label=<
            <table border="0">
            <tr><td><img src="img/2754.jpg"/></td></tr>
            <tr><td>2次元少女に保護されました</td></tr>
            </table>
            >
            tooltip="2次元少女に保護されました"
            href="https://vndb.org/v2754" 
        ]
    }

    subgraph cluster_3 {
        "3days" [
            label=<
            <table border="0">
            <tr><td><img src="img/1085.jpg"/></td></tr>
            <tr><td>3days<br/>～満ちてゆく刻の彼方で～</td></tr>
            </table>
            >
            tooltip="3days～満ちてゆく刻の彼方で～"
            href="https://vndb.org/v1085" 
        ]

        "3-days marriage" [
            label=<
            <table border="0">
            <tr><td><img src="img/5388.jpg"/></td></tr>
            <tr><td>3-days Marriage<br/>～光源氏の恋人～</td></tr>
            </table>
            >
            tooltip="3-days Marriage ～光源氏の恋人～"
            href="https://vndb.org/v5388" 
        ]

        "3jigen" [
            label=<
            <table border="0">
            <tr><td><img src="img/1062.jpg"/></td></tr>
            <tr><td>3次元少女を保護しました</td></tr>
            </table>
            >
            tooltip="3次元少女を保護しました"
            href="https://vndb.org/v1062" 
        ]

        "3LDK" [
            label=<
            <table border="0">
            <tr><td><img src="img/4220.jpg"/></td></tr>
            <tr><td>3LDK♥</td></tr>
            </table>
            >
            tooltip="3LDK♥"
            href="https://vndb.org/v4220" 
        ]

        "3-nin" [
            label=<
            <table border="0">
            <tr><td><img src="img/12161.jpg"/></td></tr>
            <tr><td>3人いる！<br/>～Happy Wedding<br/>in Livingroom～</td></tr>
            </table>
            >
            tooltip="3人いる！ ～Happy Wedding in Livingroom～"
            href="https://vndb.org/v12161" 
        ]

        "3ping" [
            label=<
            <table border="0">
            <tr><td><img src="img/12689.jpg"/></td></tr>
            <tr><td>3Ping Lovers！<br/>☆一夫二妻の世界へようこそ♪</td></tr>
            </table>
            >
            tooltip="3Ping Lovers！☆一夫二妻の世界へようこそ♪"
            href="https://vndb.org/v12689" 
        ]

        "3tsu" [
            label=<
            <table border="0">
            <tr><td><img src="img/14414.jpg"/></td></tr>
            <tr><td>3つの催眠</td></tr>
            </table>
            >
            tooltip="3つの催眠"
            href="https://vndb.org/v14414" 
        ]
    }

    subgraph cluster_4 {
        "4m" [
            label=<
            <table border="0">
            <tr><td><img src="img/12925.jpg"/></td></tr>
            <tr><td>4m</td></tr>
            </table>
            >
            tooltip="4m"
            href="https://vndb.org/v12925" 
        ]
    }
    
    subgraph cluster_5 {
        "5" [
            label=<
            <table border="0">
            <tr><td><img src="img/834.jpg"/></td></tr>
            <tr><td>Five</td></tr>
            </table>
            >
            tooltip="Five"
            href="https://vndb.org/v834" 
        ]

        five_x [
            label=<
            <table border="0">
            <tr><td><img src="img/6375.jpg"/></td></tr>
            <tr><td>XXXXX -Five X-</td></tr>
            </table>
            >
            tooltip="XXXXX -Five X-"
            href="https://vndb.org/v6375" 
        ]

        five_years [
            label=<
            <table border="0">
            <tr><td><img src="img/2374.jpg"/></td></tr>
            <tr><td>Five Years</td></tr>
            </table>
            >
            tooltip="Five Years"
            href="https://vndb.org/v2374" 
        ]

        five_card [
            label=<
            <table border="0">
            <tr><td><img src="img/7696.jpg"/></td></tr>
            <tr><td>Five Card</td></tr>
            </table>
            >
            tooltip="Five Card"
            href="https://vndb.org/v7696" 
        ]

        "5jikanme" [
            label=<
            <table border="0">
            <tr><td><img src="img/6967.jpg"/></td></tr>
            <tr><td>5時間目のヴィーナス</td></tr>
            </table>
            >
            tooltip="5時間目のヴィーナス"
            href="https://vndb.org/v6967" 
        ]

        "5-nin prince" [
            label=<
            <table border="0">
            <tr><td><img src="img/16607.jpg"/></td></tr>
            <tr><td>5人の恋プリンス<br/>~ヒミツの契約結婚~</td></tr>
            </table>
            >
            tooltip="5人の恋プリンス~ヒミツの契約結婚~"
            href="https://vndb.org/v16607" 
        ]

        "5th luna" [
            label=<
            <table border="0">
            <tr><td><img src="img/10854.jpg"/></td></tr>
            <tr><td>5th Luna</td></tr>
            </table>
            >
            tooltip="5th Luna"
            href="https://vndb.org/v10854" 
        ]
    }
    
    subgraph cluster_6 {
        six_pieces [
            label=<
            <table border="0">
            <tr><td><img src="img/5670.jpg"/></td></tr>
            <tr><td>Six Pieces<br/>～多重調教～</td></tr>
            </table>
            >
            tooltip="Six Pieces～多重調教～"
            href="https://vndb.org/v5670" 
        ]

        "6gatsu" [
            label=<
            <table border="0">
            <tr><td><img src="img/4166.jpg"/></td></tr>
            <tr><td>6月の天使</td></tr>
            </table>
            >
            tooltip="6月の天使"
            href="https://vndb.org/v4166" 
        ]

        "6inch" [
            label=<
            <table border="0">
            <tr><td><img src="img/1833.jpg"/></td></tr>
            <tr><td>6インチまいだーりん</td></tr>
            </table>
            >
            tooltip="6インチまいだーりん"
            href="https://vndb.org/v1833" 
        ]

        "6nin" [
            label=<
            <table border="0">
            <tr><td><img src="img/2011.jpg"/></td></tr>
            <tr><td>6人の女教師</td></tr>
            </table>
            >
            tooltip="6人の女教師"
            href="https://vndb.org/v2011" 
        ]

        "6shimai" [
            label=<
            <table border="0">
            <tr><td><img src="img/15666.jpg"/></td></tr>
            <tr><td>6人姉妹ハーレム催眠<br/>～催眠術で禁断の姉妹姦通</td></tr>
            </table>
            >
            tooltip="6人姉妹ハーレム催眠～催眠術で禁断の姉妹姦通"
            href="https://vndb.org/v15666" 
        ]
    }

    subgraph cluster_7 {
        seven [
            label=<
            <table border="0">
            <tr><td><img src="img/7195.jpg"/></td></tr>
            <tr><td>Seven<br/>-Sympathy for the Fairies-</td></tr>
            </table>
            >
            tooltip="Seven -Sympathy for the Fairies-"
            href="https://vndb.org/v7195" 
        ]

        liber7 [
            label=<
            <table border="0">
            <tr><td><img src="img/18759.jpg"/></td></tr>
            <tr><td>Liber_7<br/>永劫の終わりを待つ君へ</td></tr>
            </table>
            >
            tooltip="Liber_7 永劫の終わりを待つ君へ"
            href="https://vndb.org/v18759" 
        ]

        never7 [
            label=<
            <table border="0">
            <tr><td><img src="img/248.jpg"/></td></tr>
            <tr><td>Never7<br/>-The End of Infinity-</td></tr>
            </table>
            >
            tooltip="Never7 -The End of Infinity-"
            href="https://vndb.org/v248" 
        ]

        "7daysgirl" [
            label=<
            <table border="0">
            <tr><td><img src="img/12777.jpg"/></td></tr>
            <tr><td>7 Days Girl</td></tr>
            </table>
            >
            tooltip="7 Days Girl"
            href="https://vndb.org/v12777" 
        ]

        "7scarlet" [
            label=<
            <table border="0">
            <tr><td><img src="img/18162.jpg"/></td></tr>
            <tr><td>7'scarlet</td></tr>
            </table>
            >
            tooltip="7'scarlet"
            href="https://vndb.org/v18162" 
        ]

        "7ghost" [
            label=<
            <table border="0">
            <tr><td><img src="img/6341.jpg"/></td></tr>
            <tr><td>彼女と彼女と私の七日<br/>-Seven days with the Ghost-</td></tr>
            </table>
            >
            tooltip="彼女と彼女と私の七日 -Seven days with the Ghost-"
            href="https://vndb.org/v6341" 
        ]

        "7days" [
            label=<
            <table border="0">
            <tr><td><img src="img/19564.jpg"/></td></tr>
            <tr><td>セヴンデイズ<br/>あなたとすごす七日間</td></tr>
            </table>
            >
            tooltip="セヴンデイズ あなたとすごす七日間"
            href="https://vndb.org/v19564" 
        ]
    }

    subgraph cluster_8 {
        "8th angel" [
            label=<
            <table border="0">
            <tr><td><img src="img/8466.jpg"/></td></tr>
            <tr><td>8TH ANGEL<br/>～終末の天使～</td></tr>
            </table>
            >
            tooltip="8TH ANGEL ～終末の天使～"
            href="https://vndb.org/v8466" 
        ]
    }

    subgraph cluster_9 {
        "9" [
            label=<
            <table border="0">
            <tr><td><img src="img/19829.jpg"/></td></tr>
            <tr><td>9-nine- (series)</td></tr>
            </table>
            >
            tooltip="9-nine- (series)"
            href="https://vndb.org/v19829" 
        ]

        nine_lives [
            label=<
            <table border="0">
            <tr><td><img src="img/7700.jpg"/></td></tr>
            <tr><td>ないん☆らいぶす<br/>〜はニャ札するにゃん！〜</td></tr>
            </table>
            >
            tooltip="ないん☆らいぶす 〜はニャ札するにゃん！〜"
            href="https://vndb.org/v7700" 
        ]

        "3x3 kyuusei" [
            label=<
            <table border="0">
            <tr><td><img src="img/28295.jpg"/></td></tr>
            <tr><td>３Ｘ３ＥＹＥＳ<br/>～吸精公主～</td></tr>
            </table>
            >
            tooltip="３Ｘ３ＥＹＥＳ ～吸精公主～"
            href="https://vndb.org/v28295" 
        ]

        "3x3 tenrinnou" [
            label=<
            <table border="0">
            <tr><td><img src="img/28296.jpg"/></td></tr>
            <tr><td>３Ｘ３ＥＹＥＳ<br/>～転輪王幻夢～</td></tr>
            </table>
            >
            tooltip="３Ｘ３ＥＹＥＳ ～転輪王幻夢～"
            href="https://vndb.org/v28296" 
        ]

        "3x3 sanjiyan" [
            label=<
            <table border="0">
            <tr><td><img src="img/4547.jpg"/></td></tr>
            <tr><td>3x3 Eyes ~三只眼變成~</td></tr>
            </table>
            >
            tooltip="3x3 Eyes ~三只眼變成~"
            href="https://vndb.org/v4547" 
        ]
    }

    subgraph cluster_10 {
        "r-10" [
            label=<
            <table border="0">
            <tr><td><img src="img/13012.jpg"/></td></tr>
            <tr><td>R-10爆弾カノジョ。</td></tr>
            </table>
            >
            tooltip="R-10爆弾カノジョ。"
            href="https://vndb.org/v13012" 
        ]
    }

    subgraph cluster_11 {
        remember11 [
            label=<
            <table border="0">
            <tr><td><img src="img/13.jpg"/></td></tr>
            <tr><td>Remember11<br/>-The Age of Infinity-</td></tr>
            </table>
            >
            tooltip="Remember11 -The Age of Infinity-"
            href="https://vndb.org/v13" 
        ]
    
        eleven_eyes [
            label=<
            <table border="0">
            <tr><td><img src="img/729.jpg"/></td></tr>
            <tr><td>11eyes<br/>－罪と罰と贖いの少女－</td></tr>
            </table>
            >
            tooltip="11eyes－罪と罰と贖いの少女－"
            href="https://vndb.org/v729" 
        ]

        "11gatsu" [
            label=<
            <table border="0">
            <tr><td><img src="img/16342.jpg"/></td></tr>
            <tr><td>11月のアルカディア</td></tr>
            </table>
            >
            tooltip="11月のアルカディア"
            href="https://vndb.org/v16342" 
        ]
    }
    
    subgraph cluster_12 {
        "12riven" [
            label=<
            <table border="0">
            <tr><td><img src="img/247.jpg"/></td></tr>
            <tr><td>12Riven<br/>-The Ψcliminal of Integral-</td></tr>
            </table>
            >
            tooltip="12Riven -The Ψcliminal of Integral-"
            href="https://vndb.org/v247" 
        ]

        twelve_plus [
            label=<
            <table border="0">
            <tr><td><img src="img/4068.jpg"/></td></tr>
            <tr><td>12+</td></tr>
            </table>
            >
            tooltip="12+"
            href="https://vndb.org/v4068" 
        ]

        twelve_no_tsuki [
            label=<
            <table border="0">
            <tr><td><img src="img/12562.jpg"/></td></tr>
            <tr><td>12の月のイヴ</td></tr>
            </table>
            >
            tooltip="12の月のイヴ"
            href="https://vndb.org/v12562" 
        ]

        twelve_cinderella [
            label=<
            <table border="0">
            <tr><td><img src="img/8043.jpg"/></td></tr>
            <tr><td>12時の鐘とシンデレラ<br/>～Halloween Wedding～</td></tr>
            </table>
            >
            tooltip="12時の鐘とシンデレラ～Halloween Wedding～"
            href="https://vndb.org/v8043" 
        ]
    }

    subgraph cluster_13 {
        "13-nin" [
            label=<
            <table border="0">
            <tr><td><img src="img/14014.jpg"/></td></tr>
            <tr><td>13人の麗しきケダモノ</td></tr>
            </table>
            >
            tooltip="13人の麗しきケダモノ"
            href="https://vndb.org/v14014" 
        ]
    }

    subgraph cluster_14 {
        "14" [
            label=<
            <table border="0">
            <tr><td><img src="img/20719.jpg"/></td></tr>
            <tr><td>14<br/>-one and four<br/>or the other meaning-</td></tr>
            </table>
            >
            tooltip="14 -one & four or the other meaning-"
            href="https://vndb.org/v20719" 
        ]
    }

    subgraph cluster_15 {
        "15sai" [
            label=<
            <table border="0">
            <tr><td><img src="img/7473.jpg"/></td></tr>
            <tr><td>15歳だった―</td></tr>
            </table>
            >
            tooltip="15歳だった―"
            href="https://vndb.org/v7473" 
        ]
    }
    
    subgraph cluster_17 {
        ever17 [
            label=<
            <table border="0">
            <tr><td><img src="img/17.jpg"/></td></tr>
            <tr><td>Ever17<br/>-The Out of Infinity-</td></tr>
            </table>
            >
            tooltip="Ever17 -The Out of Infinity-"
            href="https://vndb.org/v17" 
        ]
    }

    subgraph cluster_18 {
        code18 [
            label=<
            <table border="0">
            <tr><td><img src="img/5950.jpg"/></td></tr>
            <tr><td>code_18</td></tr>
            </table>
            >
            tooltip="code_18"
            href="https://vndb.org/v5950" 
        ]
    }
    
    subgraph cluster_19 {
        "19" [
            label=<
            <table border="0">
            <tr><td><img src="img/2811.jpg"/></td></tr>
            <tr><td>Nineteen -19-</td></tr>
            </table>
            >
            tooltip="Nineteen -19-"
            href="https://vndb.org/v2811" 
        ]

        "19c" [
            label=<
            <table border="0">
            <tr><td><img src="img/15911.jpg"/></td></tr>
            <tr><td>19℃</td></tr>
            </table>
            >
            tooltip="19℃"
            href="https://vndb.org/v15911" 
        ]
    }

    subgraph cluster_21 {
        "21" [
            label=<
            <table border="0">
            <tr><td><img src="img/1823.jpg"/></td></tr>
            <tr><td>21-Two One-</td></tr>
            </table>
            >
            tooltip="21-Two One-"
            href="https://vndb.org/v1823"
        ]
    }

    subgraph cluster_24 {
        twentyfour_cinderella [
            label=<
            <table border="0">
            <tr><td><img src="img/10105.jpg"/></td></tr>
            <tr><td>２４時の鐘とシンデレラ<br/>～Halloween Wedding～</td></tr>
            </table>
            >
            tooltip="２４時の鐘とシンデレラ ～Halloween Wedding～"
            href="https://vndb.org/v10105" 
        ]
    }

    subgraph cluster_25 {
        "25c" [
            label=<
            <table border="0">
            <tr><td><img src="img/8181.jpg"/></td></tr>
            <tr><td>25c<br/>-その箱は少女の<br/>悲鳴を漏らさない-</td></tr>
            </table>
            >
            tooltip="25c -その箱は少女の悲鳴を漏らさない-"
            href="https://vndb.org/v8181" 
        ]
    }

    subgraph cluster_30 {
        "30days" [
            label=<
            <table border="0">
            <tr><td><img src="img/14719.jpg"/></td></tr>
            <tr><td>30 Days</td></tr>
            </table>
            >
            tooltip="30 Days"
            href="https://vndb.org/v14719" 
        ]
    }

    subgraph cluster_31 {
        "31" [
            label=<
            <table border="0">
            <tr><td><img src="img/8761.jpg"/></td></tr>
            <tr><td>３１<br/>いわゆるひとつの<br/>超らぶりぃな冒険活劇</td></tr>
            </table>
            >
            tooltip="３１ いわゆるひとつの超らぶりぃな冒険活劇"
            href="https://vndb.org/v8761" 
        ]
    }

    subgraph cluster_48 {
        "2x4!" [
            label=<
            <table border="0">
            <tr><td><img src="img/1727.jpg"/></td></tr>
            <tr><td>2×4！<br/>－ひとつ屋根の下で－</td></tr>
            </table>
            >
            tooltip="2×4！－ひとつ屋根の下で－"
            href="https://vndb.org/v1727" 
        ]

        "48" [
            label=<
            <table border="0">
            <tr><td><img src="img/19486.jpg"/></td></tr>
            <tr><td>48夜物語</td></tr>
            </table>
            >
            tooltip="48夜物語"
            href="https://vndb.org/v19486" 
        ]
    }

    subgraph cluster_69 {
        sixty_nine [
            label=<
            <table border="0">
            <tr><td><img src="img/3402.jpg"/></td></tr>
            <tr><td>Sixty Nine</td></tr>
            </table>
            >
            tooltip="Sixty Nine"
            href="https://vndb.org/v3402" 
        ]

        sixty_nine2 [
            label=<
            <table border="0">
            <tr><td><img src="img/3401.jpg"/></td></tr>
            <tr><td>Sixty Nine 2</td></tr>
            </table>
            >
            tooltip="Sixty Nine 2"
            href="https://vndb.org/v3401" 
        ]
    }
    
    
    subgraph cluster_77 {
        sevens [
            label=<
            <table border="0">
            <tr><td><img src="img/1547.jpg"/></td></tr>
            <tr><td>77 (Sevens)<br/>~And, Two Stars Meet Again~</td></tr>
            </table>
            >
            tooltip="77 (Sevens) ~And, Two Stars Meet Again~"
            href="https://vndb.org/v1547" 
        ]
    }

    subgraph cluster_100 {
        "kissx100" [
            label=<
            <table border="0">
            <tr><td><img src="img/4199.jpg"/></td></tr>
            <tr><td>KISS×100<br/>GiriGiriな女達</td></tr>
            </table>
            >
            tooltip="KISS×100 GiriGiriな女達"
            href="https://vndb.org/v4199" 
        ]
    }

    subgraph cluster_110 {
        "110" [
            label=<
            <table border="0">
            <tr><td><img src="img/13981.jpg"/></td></tr>
            <tr><td>110<br/>～産婦人科<br/>死刑囚<br/>病院ジャック～</td></tr>
            </table>
            >
            tooltip="110 ～産婦人科 死刑囚 病院ジャック～"
            href="https://vndb.org/v13981" 
        ]
    }

    subgraph cluster_120 {
        "120yen" [
            label=<
            <table border="0">
            <tr><td><img src="img/2585.jpg"/></td></tr>
            <tr><td>120円の春</td></tr>
            </table>
            >
            tooltip="120円の春"
            href="https://vndb.org/v2585" 
        ]
    }

    subgraph cluster_200 {
        "kissx200" [
            label=<
            <table border="0">
            <tr><td><img src="img/5747.jpg"/></td></tr>
            <tr><td>KISS×200<br/>とある分校の話</td></tr>
            </table>
            >
            tooltip="KISS×200 とある分校の話"
            href="https://vndb.org/v5747" 
        ]
    }

    subgraph cluster_210 {
        "210" [
            label=<
            <table border="0">
            <tr><td><img src="img/10481.jpg"/></td></tr>
            <tr><td>210<br/>-Two One Zero-</td></tr>
            </table>
            >
            tooltip="210 -Two One Zero-"
            href="https://vndb.org/v10481"
        ]
    }

    subgraph cluster_300 {
        "kissx300" [
            label=<
            <table border="0">
            <tr><td><img src="img/4032.jpg"/></td></tr>
            <tr><td>KISS×300<br/>こんな世界</td></tr>
            </table>
            >
            tooltip="KISS×300 こんな世界"
            href="https://vndb.org/v4032" 
        ]
    }

    subgraph cluster_400 {
        "kissx400" [
            label=<
            <table border="0">
            <tr><td><img src="img/7091.jpg"/></td></tr>
            <tr><td>KISS×400<br/>懐かしき日々の連続</td></tr>
            </table>
            >
            tooltip="KISS×400 懐かしき日々の連続"
            href="https://vndb.org/v7091" 
        ]
    }

    subgraph cluster_428 {
        "428" [
            label=<
            <table border="0">
            <tr><td><img src="img/1299.jpg"/></td></tr>
            <tr><td>428<br/>〜封鎖された渋谷で〜</td></tr>
            </table>
            >
            tooltip="428 〜封鎖された渋谷で〜"
            href="https://vndb.org/v1299" 
        ]
    }

    subgraph cluster_500 {
        "kissx500" [
            label=<
            <table border="0">
            <tr><td><img src="img/823.jpg"/></td></tr>
            <tr><td>KISS×500<br/>KISS権、発動</td></tr>
            </table>
            >
            tooltip="KISS×500 KISS権、発動"
            href="https://vndb.org/v823" 
        ]
    }

    subgraph cluster_501 {
        "501" [
            label=<
            <table border="0">
            <tr><td><img src="img/1832.jpg"/></td></tr>
            <tr><td>501</td></tr>
            </table>
            >
            tooltip="501"
            href="https://vndb.org/v1832" 
        ]
    }

    subgraph cluster_600 {
        "kissx600" [
            label=<
            <table border="0">
            <tr><td><img src="img/2865.jpg"/></td></tr>
            <tr><td>KISS×600<br/>管理人さんのポニーテール</td></tr>
            </table>
            >
            tooltip="KISS×600 管理人さんのポニーテール"
            href="https://vndb.org/v2865" 
        ]
    }

    subgraph cluster_700 {
        "kissx700" [
            label=<
            <table border="0">
            <tr><td><img src="img/7083.jpg"/></td></tr>
            <tr><td>KISS×700<br/>KISS探偵</td></tr>
            </table>
            >
            tooltip="KISS×700 KISS探偵"
            href="https://vndb.org/v7083" 
        ]
    }

    subgraph cluster_714 {
        "714" [
            label=<
            <table border="0">
            <tr><td><img src="img/17411.jpg"/></td></tr>
            <tr><td>714</td></tr>
            </table>
            >
            tooltip="714"
            href="https://vndb.org/v17411" 
        ]
    }

    subgraph cluster_800 {
        "kissx800" [
            label=<
            <table border="0">
            <tr><td><img src="img/12220.jpg"/></td></tr>
            <tr><td>KISS×800<br/>～KISSで学園崩壊？<br/>放課後編～</td></tr>
            </table>
            >
            tooltip="KISS×800 ～KISSで学園崩壊？ 放課後編～"
            href="https://vndb.org/v12220" 
        ]
    }

    subgraph cluster_900 {
        "kissx900" [
            label=<
            <table border="0">
            <tr><td><img src="img/14835.jpg"/></td></tr>
            <tr><td>粘膜純愛 ～ KISS×900<br/>管理人さんのポニーテール<br/>は、今日も黒かった</td></tr>
            </table>
            >
            tooltip="粘膜純愛 ～ KISS×900 管理人さんのポニーテールは、今日も黒かった"
            href="https://vndb.org/v14835" 
        ]
    }

    subgraph cluster_999 {
        "999" [
            label=<
            <table border="0">
            <tr><td><img src="img/3112.jpg"/></td></tr>
            <tr><td>極限脱出 9時間9人9の扉</td></tr>
            </table>
            >
            tooltip="極限脱出 9時間9人9の扉"
            href="https://vndb.org/v3112" 
        ]
    }

    subgraph cluster_1000 {
        "kissx1000" [
            label=<
            <table border="0">
            <tr><td><img src="img/17773.jpg"/></td></tr>
            <tr><td>KISS×1000<br/>昔、KISS部というサークル<br/>がありました</td></tr>
            </table>
            >
            tooltip="KISS×1000 昔、KISS部というサークルがありました"
            href="https://vndb.org/v17773" 
        ]
    }
    
    subgraph cluster_2069 {
        "2069ad" [
            label=<
            <table border="0">
            <tr><td><img src="img/8547.jpg"/></td></tr>
            <tr><td>2069 AD</td></tr>
            </table>
            >
            tooltip="2069 AD"
            href="https://vndb.org/v8547" 
        ]
    }

    subgraph cluster_2077 {
        cyberpunk_2077 [
            label=<
            <table border="0">
            <tr><td><img src="img/cyberpunk2077.jpg"/></td></tr>
            <tr><td>Cyberpunk 2077</td></tr>
            </table>
            >
            tooltip="Cyberpunk 2077"
            href="https://www.cyberpunk.net" 
        ]
    }

    subgraph cluster_365000 {
        "365000" [
            label=<
            <table border="0">
            <tr><td><img src="img/28077.jpg"/></td></tr>
            <tr><td>36万5千の夜を越えて<br/>～Completed artificial God～</td></tr>
            </table>
            >
            tooltip="36万5千の夜を越えて ～Completed artificial God～"
            href="https://vndb.org/v28077"
        ]
    }

    subgraph cluster_380000 {
        "380000" [
            label=<
            <table border="0">
            <tr><td><img src="img/6994.jpg"/></td></tr>
            <tr><td>38万キロの虚空</td></tr>
            </table>
            >
            tooltip="38万キロの虚空"
            href="https://vndb.org/v6994"
        ]
    }

    subgraph cluster_78588225 {
        "8865^2" [
            label=<
            <table border="0">
            <tr><td><img src="img/1728.jpg"/></td></tr>
            <tr><td>8665^2<br/>ハルルコのジジョウ</td></tr>
            </table>
            >
            tooltip="8665^2　ハルルコのジジョウ"
            href="https://vndb.org/v1728"
        ]
    }

    subgraph cluster_infinity {
        infinity [
            label=<
            <table border="0">
            <tr><td><img src="img/2981.jpg"/></td></tr>
            <tr><td>Infinity</td></tr>
            </table>
            >
            tooltip="Infinity"
            href="https://vndb.org/v2981"
        ]
    }

    # CONNECTIONS
    subgraph negative_timeline {
        edge [dir=back]

        negative8
        # -7 -> -2
        -> one_two_finish
        -> nega0
        -> rezero
    }

    subgraph positive_timeline {
        rezero
        -> "1/7mahou"
        -> "1/2summer"
        -> one
        -> "2nd love"
        -> "3days"
        -> "4m"
        -> "5"
        -> six_pieces
        -> seven
        -> "8th angel"
        -> "9"
        -> "r-10"
        -> remember11
        -> "12riven"
        -> "13-nin"
        -> "14"
        -> "15sai"
        #16
        -> ever17
        -> code18
        -> "19"
        #20
        -> "21"
        #22
        #23
        -> twentyfour_cinderella
        -> "25c"
        #26
        #27
        #28
        #29
        -> "30days"
        -> "31"
        #32 -> 47
        -> "2x4!"
        #49 -> 68
        -> sixty_nine
        #70
        #71
        #72
        #73
        #74
        #75
        #76
        -> sevens
        #78 -> 99
        -> "kissx100"
        #101 -> 109
        -> "110" 
        #111
        #112
        #113
        #114
        #115
        #116
        #117
        #118
        #119
        -> "120yen"
        #121 -> 199
        -> "kissx200"
        #201 -> 209
        -> "210"
        #211 -> 209
        -> "kissx300"
        #301 -> 399
        -> "kissx400"
        #401 -> 427
        -> "428"
        #429 -> 499
        -> "kissx500"
        -> "501"
        # 502 -> 599
        ->"kissx600"
        #601 -> 699
        -> "kissx700"
        #701 -> 713
        -> "714"
        #715 -> 799
        -> "kissx800"
        #801 -> 899
        -> "kissx900"
        #901 -> 998
        -> "999"
        -> "kissx1000"
        #1001 -> 2068
        -> "2069ad"
        #2070
        #2071
        #2072
        #2073
        #2074
        #2075
        #2076
        -> cyberpunk_2077
        #2078 -> 364999
        -> "365000"
        #365001 -> 379999
        -> "380000"
        #380001 -> 78588224
        -> "8865^2"

        -> "infinity"
    }

    subgraph sequels {
        edge [
            constraint=false
            color="blue"
        ]

        one -> one2

        "kissx100" 
        -> "kissx200"
        -> "kissx300"
        -> "kissx400"
        -> "kissx500"
        -> "kissx600"
        -> "kissx700"
        -> "kissx800"
        -> "kissx900"
        -> "kissx1000"

        "kissx600" -> "kissx900"

        "2jigen" -> "3jigen"

        remember11 -> code18
        remember11 -> ever17
        remember11 -> "12riven"

        never7 -> ever17

        infinity -> never7

        "21" -> "210"
    }
}